# This file uses centimeters as units for non-parametric coordinates.

g default
v -0.163884 0.000000 0.000000
v -0.163884 -0.084517 -0.061405
v -0.163884 -0.032283 -0.099356
v -0.163884 0.032283 -0.099356
v -0.163884 0.084517 -0.061405
v -0.163884 0.104469 0.000000
v -0.163884 0.084517 0.061405
v -0.163884 0.032283 0.099356
v -0.163884 -0.032283 0.099356
v -0.163884 -0.084517 0.061405
v -0.163884 -0.104469 0.000000
v -0.090343 -0.139175 -0.101117
v -0.090343 -0.053160 -0.163610
v -0.090343 0.053160 -0.163610
v -0.090343 0.139175 -0.101117
v -0.090343 0.172030 0.000000
v -0.090343 0.139175 0.101117
v -0.090343 0.053160 0.163610
v -0.090343 -0.053160 0.163610
v -0.090343 -0.139175 0.101117
v -0.090343 -0.172030 0.000000
v 0.000000 -0.155780 -0.113181
v 0.000000 -0.059503 -0.183130
v 0.000000 0.059503 -0.183130
v 0.000000 0.155780 -0.113181
v 0.000000 0.192554 0.000000
v 0.000000 0.155780 0.113181
v 0.000000 0.059503 0.183130
v 0.000000 -0.059503 0.183130
v 0.000000 -0.155780 0.113181
v 0.000000 -0.192554 0.000000
v 0.163884 0.000000 0.000000
v 0.163884 -0.084517 -0.061405
v 0.163884 -0.032283 -0.099356
v 0.163884 0.032283 -0.099356
v 0.163884 0.084517 -0.061405
v 0.163884 0.104469 0.000000
v 0.163884 0.084517 0.061405
v 0.163884 0.032283 0.099356
v 0.163884 -0.032283 0.099356
v 0.163884 -0.084517 0.061405
v 0.163884 -0.104469 0.000000
v 0.090343 -0.139175 -0.101117
v 0.090343 -0.053160 -0.163610
v 0.090343 0.053160 -0.163610
v 0.090343 0.139175 -0.101117
v 0.090343 0.172030 0.000000
v 0.090343 0.139175 0.101117
v 0.090343 0.053160 0.163610
v 0.090343 -0.053160 0.163610
v 0.090343 -0.139175 0.101117
v 0.090343 -0.172030 0.000000
v 0.000000 -0.155780 -0.113181
v 0.000000 -0.059503 -0.183130
v 0.000000 0.059503 -0.183130
v 0.000000 0.155780 -0.113181
v 0.000000 0.192554 0.000000
v 0.000000 0.155780 0.113181
v 0.000000 0.059503 0.183130
v 0.000000 -0.059503 0.183130
v 0.000000 -0.155780 0.113181
v 0.000000 -0.192554 0.000000
vt 0.168343 0.279531
vt 0.170304 0.227547
vt 0.249340 0.256576
vt 0.197304 0.322776
vt 0.246142 0.340722
vt 0.296215 0.326539
vt 0.328374 0.285608
vt 0.330371 0.233589
vt 0.301408 0.190377
vt 0.252536 0.172430
vt 0.202464 0.186613
vt 0.092884 0.305093
vt 0.094238 0.203863
vt 0.151290 0.387788
vt 0.247137 0.420370
vt 0.343865 0.390389
vt 0.404473 0.309292
vt 0.405829 0.208026
vt 0.347390 0.125329
vt 0.251543 0.092751
vt 0.154846 0.122764
vt 0.020343 0.331175
vt 0.020217 0.182317
vt 0.107924 0.451520
vt 0.249512 0.497435
vt 0.391054 0.451316
vt 0.478462 0.330835
vt 0.478372 0.181946
vt 0.390756 0.061600
vt 0.249132 0.015716
vt 0.107625 0.061835
vt 0.168343 0.279531
vt 0.249340 0.256576
vt 0.170304 0.227547
vt 0.197304 0.322776
vt 0.246142 0.340722
vt 0.296215 0.326539
vt 0.328374 0.285608
vt 0.330371 0.233589
vt 0.301408 0.190377
vt 0.252536 0.172430
vt 0.202464 0.186613
vt 0.094238 0.203863
vt 0.092884 0.305093
vt 0.151290 0.387788
vt 0.247137 0.420370
vt 0.343865 0.390389
vt 0.404473 0.309292
vt 0.405829 0.208026
vt 0.347390 0.125329
vt 0.251543 0.092751
vt 0.154846 0.122764
vt 0.020217 0.182317
vt 0.020343 0.331175
vt 0.107924 0.451520
vt 0.249512 0.497435
vt 0.391054 0.451316
vt 0.478462 0.330835
vt 0.478372 0.181946
vt 0.390756 0.061600
vt 0.249132 0.015716
vt 0.107625 0.061835
vn -0.792012 -0.188656 -0.580625
vn -0.792013 -0.493909 -0.358845
vn -1.000000 0.000000 -0.000000
vn -0.792013 0.188657 -0.580625
vn -0.792012 -0.188656 -0.580625
vn -1.000000 0.000000 -0.000000
vn -0.792012 0.493909 -0.358845
vn -0.792013 0.188657 -0.580625
vn -1.000000 0.000000 -0.000000
vn -0.792012 0.610506 -0.000000
vn -0.792012 0.493909 -0.358845
vn -1.000000 0.000000 -0.000000
vn -0.792012 0.493910 0.358845
vn -0.792012 0.610506 -0.000000
vn -1.000000 0.000000 -0.000000
vn -0.792013 0.188657 0.580624
vn -0.792012 0.493910 0.358845
vn -1.000000 0.000000 -0.000000
vn -0.792012 -0.188656 0.580625
vn -0.792013 0.188657 0.580624
vn -1.000000 0.000000 -0.000000
vn -0.792012 -0.493910 0.358845
vn -0.792012 -0.188656 0.580625
vn -1.000000 0.000000 -0.000000
vn -0.792012 -0.610505 0.000001
vn -0.792012 -0.493910 0.358845
vn -1.000000 0.000000 -0.000000
vn -0.792013 -0.493909 -0.358845
vn -0.792012 -0.610505 0.000001
vn -1.000000 0.000000 -0.000000
vn -0.792013 -0.493909 -0.358845
vn -0.792012 -0.188656 -0.580625
vn -0.418967 -0.280588 -0.863561
vn -0.418967 -0.734589 -0.533709
vn -0.792012 -0.188656 -0.580625
vn -0.792013 0.188657 -0.580625
vn -0.418966 0.280588 -0.863561
vn -0.418967 -0.280588 -0.863561
vn -0.792013 0.188657 -0.580625
vn -0.792012 0.493909 -0.358845
vn -0.418966 0.734589 -0.533710
vn -0.418966 0.280588 -0.863561
vn -0.792012 0.493909 -0.358845
vn -0.792012 0.610506 -0.000000
vn -0.418966 0.908002 -0.000000
vn -0.418966 0.734589 -0.533710
vn -0.792012 0.610506 -0.000000
vn -0.792012 0.493910 0.358845
vn -0.418966 0.734589 0.533710
vn -0.418966 0.908002 -0.000000
vn -0.792012 0.493910 0.358845
vn -0.792013 0.188657 0.580624
vn -0.418967 0.280588 0.863561
vn -0.418966 0.734589 0.533710
vn -0.792013 0.188657 0.580624
vn -0.792012 -0.188656 0.580625
vn -0.418967 -0.280588 0.863561
vn -0.418967 0.280588 0.863561
vn -0.792012 -0.188656 0.580625
vn -0.792012 -0.493910 0.358845
vn -0.418966 -0.734590 0.533709
vn -0.418967 -0.280588 0.863561
vn -0.792012 -0.493910 0.358845
vn -0.792012 -0.610505 0.000001
vn -0.418966 -0.908002 0.000001
vn -0.418966 -0.734590 0.533709
vn -0.792012 -0.610505 0.000001
vn -0.792013 -0.493909 -0.358845
vn -0.418967 -0.734589 -0.533709
vn -0.418966 -0.908002 0.000001
vn -0.418967 -0.734589 -0.533709
vn -0.418967 -0.280588 -0.863561
vn -0.221540 -0.301338 -0.927424
vn -0.221540 -0.788915 -0.573179
vn -0.418967 -0.280588 -0.863561
vn -0.418966 0.280588 -0.863561
vn -0.221540 0.301338 -0.927424
vn -0.221540 -0.301338 -0.927424
vn -0.418966 0.280588 -0.863561
vn -0.418966 0.734589 -0.533710
vn -0.221540 0.788914 -0.573179
vn -0.221540 0.301338 -0.927424
vn -0.418966 0.734589 -0.533710
vn -0.418966 0.908002 -0.000000
vn -0.221540 0.975151 0.000000
vn -0.221540 0.788914 -0.573179
vn -0.418966 0.908002 -0.000000
vn -0.418966 0.734589 0.533710
vn -0.221540 0.788915 0.573179
vn -0.221540 0.975151 0.000000
vn -0.418966 0.734589 0.533710
vn -0.418967 0.280588 0.863561
vn -0.221540 0.301339 0.927424
vn -0.221540 0.788915 0.573179
vn -0.418967 0.280588 0.863561
vn -0.418967 -0.280588 0.863561
vn -0.221540 -0.301339 0.927424
vn -0.221540 0.301339 0.927424
vn -0.418967 -0.280588 0.863561
vn -0.418966 -0.734590 0.533709
vn -0.221540 -0.788915 0.573179
vn -0.221540 -0.301339 0.927424
vn -0.418966 -0.734590 0.533709
vn -0.418966 -0.908002 0.000001
vn -0.221540 -0.975151 0.000001
vn -0.221540 -0.788915 0.573179
vn -0.418966 -0.908002 0.000001
vn -0.418967 -0.734589 -0.533709
vn -0.221540 -0.788915 -0.573179
vn -0.221540 -0.975151 0.000001
vn 0.792013 -0.188656 -0.580625
vn 1.000000 0.000000 0.000000
vn 0.792013 -0.493909 -0.358845
vn 0.792013 0.188657 -0.580624
vn 1.000000 0.000000 0.000000
vn 0.792013 -0.188656 -0.580625
vn 0.792013 0.493909 -0.358845
vn 1.000000 0.000000 0.000000
vn 0.792013 0.188657 -0.580624
vn 0.792012 0.610506 0.000000
vn 1.000000 0.000000 0.000000
vn 0.792013 0.493909 -0.358845
vn 0.792012 0.493910 0.358845
vn 1.000000 0.000000 0.000000
vn 0.792012 0.610506 0.000000
vn 0.792013 0.188657 0.580624
vn 1.000000 0.000000 0.000000
vn 0.792012 0.493910 0.358845
vn 0.792012 -0.188656 0.580625
vn 1.000000 0.000000 0.000000
vn 0.792013 0.188657 0.580624
vn 0.792012 -0.493910 0.358845
vn 1.000000 0.000000 0.000000
vn 0.792012 -0.188656 0.580625
vn 0.792012 -0.610505 0.000001
vn 1.000000 0.000000 0.000000
vn 0.792012 -0.493910 0.358845
vn 0.792013 -0.493909 -0.358845
vn 1.000000 0.000000 0.000000
vn 0.792012 -0.610505 0.000001
vn 0.792013 -0.493909 -0.358845
vn 0.418967 -0.734589 -0.533709
vn 0.418967 -0.280588 -0.863561
vn 0.792013 -0.188656 -0.580625
vn 0.792013 -0.188656 -0.580625
vn 0.418967 -0.280588 -0.863561
vn 0.418967 0.280588 -0.863561
vn 0.792013 0.188657 -0.580624
vn 0.792013 0.188657 -0.580624
vn 0.418967 0.280588 -0.863561
vn 0.418966 0.734589 -0.533710
vn 0.792013 0.493909 -0.358845
vn 0.792013 0.493909 -0.358845
vn 0.418966 0.734589 -0.533710
vn 0.418966 0.908002 0.000000
vn 0.792012 0.610506 0.000000
vn 0.792012 0.610506 0.000000
vn 0.418966 0.908002 0.000000
vn 0.418966 0.734589 0.533709
vn 0.792012 0.493910 0.358845
vn 0.792012 0.493910 0.358845
vn 0.418966 0.734589 0.533709
vn 0.418967 0.280588 0.863561
vn 0.792013 0.188657 0.580624
vn 0.792013 0.188657 0.580624
vn 0.418967 0.280588 0.863561
vn 0.418967 -0.280588 0.863561
vn 0.792012 -0.188656 0.580625
vn 0.792012 -0.188656 0.580625
vn 0.418967 -0.280588 0.863561
vn 0.418966 -0.734590 0.533709
vn 0.792012 -0.493910 0.358845
vn 0.792012 -0.493910 0.358845
vn 0.418966 -0.734590 0.533709
vn 0.418966 -0.908002 0.000001
vn 0.792012 -0.610505 0.000001
vn 0.792012 -0.610505 0.000001
vn 0.418966 -0.908002 0.000001
vn 0.418967 -0.734589 -0.533709
vn 0.792013 -0.493909 -0.358845
vn 0.418967 -0.734589 -0.533709
vn 0.221540 -0.788915 -0.573179
vn 0.221540 -0.301338 -0.927424
vn 0.418967 -0.280588 -0.863561
vn 0.418967 -0.280588 -0.863561
vn 0.221540 -0.301338 -0.927424
vn 0.221540 0.301338 -0.927424
vn 0.418967 0.280588 -0.863561
vn 0.418967 0.280588 -0.863561
vn 0.221540 0.301338 -0.927424
vn 0.221540 0.788914 -0.573179
vn 0.418966 0.734589 -0.533710
vn 0.418966 0.734589 -0.533710
vn 0.221540 0.788914 -0.573179
vn 0.221540 0.975151 0.000000
vn 0.418966 0.908002 0.000000
vn 0.418966 0.908002 0.000000
vn 0.221540 0.975151 0.000000
vn 0.221540 0.788915 0.573179
vn 0.418966 0.734589 0.533709
vn 0.418966 0.734589 0.533709
vn 0.221540 0.788915 0.573179
vn 0.221540 0.301339 0.927424
vn 0.418967 0.280588 0.863561
vn 0.418967 0.280588 0.863561
vn 0.221540 0.301339 0.927424
vn 0.221540 -0.301339 0.927424
vn 0.418967 -0.280588 0.863561
vn 0.418967 -0.280588 0.863561
vn 0.221540 -0.301339 0.927424
vn 0.221540 -0.788915 0.573179
vn 0.418966 -0.734590 0.533709
vn 0.418966 -0.734590 0.533709
vn 0.221540 -0.788915 0.573179
vn 0.221540 -0.975151 0.000001
vn 0.418966 -0.908002 0.000001
vn 0.418966 -0.908002 0.000001
vn 0.221540 -0.975151 0.000001
vn 0.221540 -0.788915 -0.573179
vn 0.418967 -0.734589 -0.533709
s off
g enemyBall2_piece2:enemyBall2_piece2
f 3/1/1 2/2/2 1/3/3
f 4/4/4 3/1/5 1/3/6
f 5/5/7 4/4/8 1/3/9
f 6/6/10 5/5/11 1/3/12
f 7/7/13 6/6/14 1/3/15
f 8/8/16 7/7/17 1/3/18
f 9/9/19 8/8/20 1/3/21
f 10/10/22 9/9/23 1/3/24
f 11/11/25 10/10/26 1/3/27
f 2/2/28 11/11/29 1/3/30
f 2/2/31 3/1/32 13/12/33 12/13/34
f 3/1/35 4/4/36 14/14/37 13/12/38
f 4/4/39 5/5/40 15/15/41 14/14/42
f 5/5/43 6/6/44 16/16/45 15/15/46
f 6/6/47 7/7/48 17/17/49 16/16/50
f 7/7/51 8/8/52 18/18/53 17/17/54
f 8/8/55 9/9/56 19/19/57 18/18/58
f 9/9/59 10/10/60 20/20/61 19/19/62
f 10/10/63 11/11/64 21/21/65 20/20/66
f 11/11/67 2/2/68 12/13/69 21/21/70
f 12/13/71 13/12/72 23/22/73 22/23/74
f 13/12/75 14/14/76 24/24/77 23/22/78
f 14/14/79 15/15/80 25/25/81 24/24/82
f 15/15/83 16/16/84 26/26/85 25/25/86
f 16/16/87 17/17/88 27/27/89 26/26/90
f 17/17/91 18/18/92 28/28/93 27/27/94
f 18/18/95 19/19/96 29/29/97 28/28/98
f 19/19/99 20/20/100 30/30/101 29/29/102
f 20/20/103 21/21/104 31/31/105 30/30/106
f 21/21/107 12/13/108 22/23/109 31/31/110
f 34/32/111 32/33/112 33/34/113
f 35/35/114 32/33/115 34/32/116
f 36/36/117 32/33/118 35/35/119
f 37/37/120 32/33/121 36/36/122
f 38/38/123 32/33/124 37/37/125
f 39/39/126 32/33/127 38/38/128
f 40/40/129 32/33/130 39/39/131
f 41/41/132 32/33/133 40/40/134
f 42/42/135 32/33/136 41/41/137
f 33/34/138 32/33/139 42/42/140
f 33/34/141 43/43/142 44/44/143 34/32/144
f 34/32/145 44/44/146 45/45/147 35/35/148
f 35/35/149 45/45/150 46/46/151 36/36/152
f 36/36/153 46/46/154 47/47/155 37/37/156
f 37/37/157 47/47/158 48/48/159 38/38/160
f 38/38/161 48/48/162 49/49/163 39/39/164
f 39/39/165 49/49/166 50/50/167 40/40/168
f 40/40/169 50/50/170 51/51/171 41/41/172
f 41/41/173 51/51/174 52/52/175 42/42/176
f 42/42/177 52/52/178 43/43/179 33/34/180
f 43/43/181 53/53/182 54/54/183 44/44/184
f 44/44/185 54/54/186 55/55/187 45/45/188
f 45/45/189 55/55/190 56/56/191 46/46/192
f 46/46/193 56/56/194 57/57/195 47/47/196
f 47/47/197 57/57/198 58/58/199 48/48/200
f 48/48/201 58/58/202 59/59/203 49/49/204
f 49/49/205 59/59/206 60/60/207 50/50/208
f 50/50/209 60/60/210 61/61/211 51/51/212
f 51/51/213 61/61/214 62/62/215 52/52/216
f 52/52/217 62/62/218 53/53/219 43/43/220
