# This file uses centimeters as units for non-parametric coordinates.

g default
v -30.211264 -32.173523 25.000008
v 25.978338 -32.173523 25.000008
v -29.732765 -18.973257 25.000006
v -11.537526 -1.302577 25.000006
v -29.732765 -18.973257 -24.999985
v -11.537526 -1.302577 -24.999985
v -30.211264 -32.173523 -24.999985
v 25.978338 -32.173523 -25.000008
v -0.377840 3.888280 25.000006
v -0.377840 3.888280 -24.999985
v 22.033215 25.357761 25.000006
v 22.033215 25.357761 -24.999985
v -27.780142 -18.465261 22.943096
v -12.122209 -2.528398 22.943096
v -12.122209 -2.528398 -22.999987
v -27.780142 -18.465261 -22.999987
v 1.699783 5.241449 22.943096
v 1.699783 5.241449 -22.999987
v 21.776733 23.624308 22.943096
v 21.776733 23.624308 -22.999987
v 30.211264 32.173523 25.000006
v 30.211264 32.173523 -24.999985
vt 0.000487 0.003158
vt 0.535340 0.000000
vt 0.536112 0.141172
vt 0.001205 0.144378
vt 0.539196 0.416665
vt 0.000003 0.418117
vt 0.021980 0.403649
vt 0.516504 0.402356
vt 0.024064 0.165479
vt 0.512825 0.162455
vt 0.535805 0.886242
vt 0.003660 0.883138
vt 0.026740 0.865019
vt 0.512170 0.867983
vt 0.535449 1.000000
vt 0.003110 0.996977
vt 0.000000 0.549867
vt 0.022098 0.576203
vt 0.517102 0.574494
vt 0.539817 0.548045
vt 0.990340 0.417743
vt 0.990340 0.037026
vt 0.781170 0.291218
vt 0.900901 0.414502
vt 0.746011 0.215607
vt 0.600541 0.063751
vt 0.554361 0.008344
vt 0.900901 0.414502
vt 0.781170 0.291218
vt 0.990340 0.037026
vt 0.990340 0.417743
vt 0.746011 0.215607
vt 0.600541 0.063751
vt 0.554361 0.008344
vn -0.000000 0.000000 1.000000
vn -0.000000 0.000000 1.000000
vn -0.000000 0.000000 1.000000
vn -0.000000 0.000000 1.000000
vn -0.713322 0.700837 0.000000
vn -0.713322 0.700837 0.000000
vn -0.713322 0.700837 0.000000
vn -0.713322 0.700837 0.000000
vn -0.000000 0.000000 -1.000000
vn -0.000000 0.000000 -1.000000
vn -0.000000 0.000000 -1.000000
vn -0.000000 0.000000 -1.000000
vn -0.999344 0.036225 0.000000
vn -0.999344 0.036225 0.000000
vn -0.999344 0.036225 0.000000
vn -0.999344 0.036225 0.000000
vn -0.421751 0.906712 0.000000
vn -0.421751 0.906712 0.000000
vn -0.421751 0.906712 0.000000
vn -0.421751 0.906712 0.000000
vn -0.675305 0.737539 0.000000
vn -0.675305 0.737539 0.000000
vn -0.675305 0.737539 0.000000
vn -0.675305 0.737539 0.000000
vn 0.000000 0.000000 1.000000
vn 0.000000 0.000000 1.000000
vn 0.000000 0.000000 1.000000
vn 0.000000 0.000000 -1.000000
vn 0.000000 0.000000 -1.000000
vn 0.000000 0.000000 -1.000000
vn -0.000000 0.000000 1.000000
vn -0.000000 0.000000 1.000000
vn -0.000000 0.000000 1.000000
vn -0.000000 0.000000 -1.000000
vn -0.000000 0.000000 -1.000000
vn -0.000000 0.000000 -1.000000
vn -0.663281 0.668128 -0.337139
vn -0.663281 0.668128 -0.337139
vn -0.663281 0.668128 -0.337139
vn -0.663281 0.668128 -0.337139
vn -0.902586 0.430509 0.000000
vn -0.902586 0.430509 0.000000
vn -0.902586 0.430509 0.000000
vn -0.902587 0.430509 0.000000
vn -0.661116 0.665948 0.345601
vn -0.661116 0.665948 0.345601
vn -0.661116 0.665948 0.345601
vn -0.661116 0.665948 0.345601
vn -0.251779 0.967785 0.000000
vn -0.251779 0.967785 0.000000
vn -0.251779 0.967785 0.000000
vn -0.251779 0.967785 0.000000
vn -0.545758 0.837943 0.000000
vn -0.545758 0.837943 0.000000
vn -0.545758 0.837943 0.000000
vn -0.545758 0.837943 0.000000
vn -0.641555 0.683984 -0.347237
vn -0.641555 0.683984 -0.347237
vn -0.641555 0.683984 -0.347237
vn -0.641555 0.683984 -0.347237
vn -0.989231 0.146366 0.000000
vn -0.989231 0.146366 0.000000
vn -0.989231 0.146366 0.000000
vn -0.989231 0.146366 0.000000
vn -0.639334 0.681616 0.355881
vn -0.639334 0.681616 0.355881
vn -0.639334 0.681616 0.355881
vn -0.639334 0.681616 0.355881
vn -0.640224 0.768188 0.000000
vn -0.640224 0.768188 0.000000
vn -0.640224 0.768188 0.000000
vn -0.640224 0.768188 0.000000
vn 0.000000 0.000000 1.000000
vn 0.000000 0.000000 1.000000
vn 0.000000 0.000000 1.000000
vn -0.000000 0.000000 -1.000000
vn -0.000000 0.000000 -1.000000
vn -0.000000 0.000000 -1.000000
s off
g stand
f 1/21/1 2/22/2 4/23/3 3/24/4
f 13/10/5 14/8/6 15/7/7 16/9/8
f 5/28/9 6/29/10 8/30/11 7/31/12
f 7/1/13 1/2/14 3/3/15 5/4/16
f 6/6/17 4/5/18 9/20/19 10/17/20
f 18/18/21 17/19/22 19/14/23 20/13/24
f 9/25/25 4/23/26 2/22/27
f 6/29/28 10/32/29 8/30/30
f 11/26/31 9/25/32 2/22/33
f 10/32/34 12/33/35 8/30/36
f 3/3/37 4/5/38 14/8/39 13/10/40
f 4/5/41 6/6/42 15/7/43 14/8/44
f 6/6/45 5/4/46 16/9/47 15/7/48
f 5/4/49 3/3/50 13/10/51 16/9/52
f 10/17/53 9/20/54 17/19/55 18/18/56
f 9/20/57 11/11/58 19/14/59 17/19/60
f 11/11/61 12/12/62 20/13/63 19/14/64
f 12/12/65 10/17/66 18/18/67 20/13/68
f 12/12/69 11/11/70 21/15/71 22/16/72
f 11/26/73 2/22/74 21/27/75
f 8/30/76 12/33/77 22/34/78
